Library\Bee\artifacts\mvdfrm\Unity.2D.Animation.Editor.ref.dll_A13BD6459BB26E0B.mvfrm
Library\Bee\artifacts\mvdfrm\Unity.2D.Animation.Runtime.ref.dll_6747672A37E369F0.mvfrm
Library\Bee\artifacts\mvdfrm\Unity.2D.Common.Editor.ref.dll_BD59A5CBF9D52B22.mvfrm
Library\Bee\artifacts\mvdfrm\Unity.2D.Common.Runtime.ref.dll_77798F371487C3E9.mvfrm
Library\Bee\artifacts\mvdfrm\Unity.2D.IK.Editor.ref.dll_F60355C05B38283B.mvfrm
Library\Bee\artifacts\mvdfrm\Unity.2D.IK.Runtime.ref.dll_16F22BA31A1D34C0.mvfrm
Library\Bee\artifacts\mvdfrm\Unity.2D.Path.Editor.ref.dll_583975DB52C81A78.mvfrm
Library\Bee\artifacts\mvdfrm\Unity.2D.PixelPerfect.Editor.ref.dll_500201FE28D4C516.mvfrm
Library\Bee\artifacts\mvdfrm\Unity.2D.PixelPerfect.ref.dll_88C9F7A57CCB704B.mvfrm
Library\Bee\artifacts\mvdfrm\Unity.2D.Psdimporter.Editor.ref.dll_B76AC6E0D8C9839C.mvfrm
Library\Bee\artifacts\mvdfrm\Unity.2D.Sprite.Editor.ref.dll_DDBAA27A82CE9E28.mvfrm
Library\Bee\artifacts\mvdfrm\Unity.2D.SpriteShape.Editor.ref.dll_1AEEC37E15960FB3.mvfrm
Library\Bee\artifacts\mvdfrm\Unity.2D.SpriteShape.Runtime.ref.dll_BCD600250821B9C8.mvfrm
Library\Bee\artifacts\mvdfrm\Unity.2D.Tilemap.Editor.ref.dll_436C0E2610862891.mvfrm
Library\Bee\artifacts\mvdfrm\Unity.2D.Tilemap.Extras.Editor.ref.dll_8DA00406C36CC6AA.mvfrm
Library\Bee\artifacts\mvdfrm\Unity.2D.Tilemap.Extras.ref.dll_371E356D6F5B6577.mvfrm
Library\Bee\artifacts\mvdfrm\Unity.Burst.Editor.ref.dll_E2F92DAB6C167CC9.mvfrm
Library\Bee\artifacts\mvdfrm\Unity.Burst.ref.dll_F30DFA20C0DD1968.mvfrm
Library\Bee\artifacts\mvdfrm\Unity.InternalAPIEditorBridge.001.ref.dll_C275F416F58A86FE.mvfrm
Library\Bee\artifacts\mvdfrm\Unity.InternalAPIEngineBridge.001.ref.dll_B4F0ACC15A996E43.mvfrm
Library\Bee\artifacts\mvdfrm\Unity.Mathematics.Editor.ref.dll_9A20CFD48BC11F43.mvfrm
Library\Bee\artifacts\mvdfrm\Unity.Mathematics.ref.dll_E8EFDB1B8D5C174E.mvfrm
Library\Bee\artifacts\mvdfrm\Unity.PlasticSCM.Editor.ref.dll_257AEB342BE77856.mvfrm
Library\Bee\artifacts\mvdfrm\Unity.RenderPipeline.Universal.ShaderLibrary.ref.dll_5436F99F8BDCED8B.mvfrm
Library\Bee\artifacts\mvdfrm\Unity.RenderPipelines.Core.Editor.ref.dll_46EB9B6930B27991.mvfrm
Library\Bee\artifacts\mvdfrm\Unity.RenderPipelines.Core.Runtime.ref.dll_CE6A42C97D96EB0A.mvfrm
Library\Bee\artifacts\mvdfrm\Unity.RenderPipelines.Core.ShaderLibrary.ref.dll_7F2C410A434F5518.mvfrm
Library\Bee\artifacts\mvdfrm\Unity.RenderPipelines.ShaderGraph.ShaderGraphLibrary.ref.dll_1A2083B43FB0BF18.mvfrm
Library\Bee\artifacts\mvdfrm\Unity.RenderPipelines.Universal.Editor.ref.dll_0FF7AC68384616B1.mvfrm
Library\Bee\artifacts\mvdfrm\Unity.RenderPipelines.Universal.Runtime.ref.dll_5400A10AF7CC6BEA.mvfrm
Library\Bee\artifacts\mvdfrm\Unity.RenderPipelines.Universal.Shaders.ref.dll_9468B054363B0720.mvfrm
Library\Bee\artifacts\mvdfrm\Unity.Rider.Editor.ref.dll_9B5591808ABA37AF.mvfrm
Library\Bee\artifacts\mvdfrm\Unity.Searcher.Editor.ref.dll_12B7E1785E41BE0E.mvfrm
Library\Bee\artifacts\mvdfrm\Unity.ShaderGraph.Editor.ref.dll_0F50152946DB09D0.mvfrm
Library\Bee\artifacts\mvdfrm\Unity.TextMeshPro.Editor.ref.dll_159E061D77A10B86.mvfrm
Library\Bee\artifacts\mvdfrm\Unity.TextMeshPro.ref.dll_84A4293DBDD182DB.mvfrm
Library\Bee\artifacts\mvdfrm\Unity.Timeline.Editor.ref.dll_0D3D3C0B73557612.mvfrm
Library\Bee\artifacts\mvdfrm\Unity.Timeline.ref.dll_621CDDF9C514DF8F.mvfrm
Library\Bee\artifacts\mvdfrm\Unity.VSCode.Editor.ref.dll_3628369EB48E4C19.mvfrm
Library\Bee\artifacts\mvdfrm\Unity.VisualScripting.Core.Editor.ref.dll_EDC8690F57C5BDFD.mvfrm
Library\Bee\artifacts\mvdfrm\Unity.VisualScripting.Core.ref.dll_D75DF4EA1AFE54F4.mvfrm
Library\Bee\artifacts\mvdfrm\Unity.VisualScripting.Flow.Editor.ref.dll_6AF951BE66A4493E.mvfrm
Library\Bee\artifacts\mvdfrm\Unity.VisualScripting.Flow.ref.dll_1E6ED5409D07C9A3.mvfrm
Library\Bee\artifacts\mvdfrm\Unity.VisualScripting.SettingsProvider.Editor.ref.dll_A1A44354E0B583A8.mvfrm
Library\Bee\artifacts\mvdfrm\Unity.VisualScripting.Shared.Editor.ref.dll_9669F6EBFF6DFFB7.mvfrm
Library\Bee\artifacts\mvdfrm\Unity.VisualScripting.State.Editor.ref.dll_E03858E727F23F6F.mvfrm
Library\Bee\artifacts\mvdfrm\Unity.VisualScripting.State.ref.dll_D91762B7076BE462.mvfrm
Library\Bee\artifacts\mvdfrm\Unity.VisualStudio.Editor.ref.dll_3A975DBA53ABA4AD.mvfrm
Library\Bee\artifacts\mvdfrm\UnityEditor.UI.ref.dll_4C98D3F7040CD4F5.mvfrm
Library\Bee\artifacts\mvdfrm\UnityEngine.UI.ref.dll_08FEAA520A2EFD60.mvfrm
Library\Bee\artifacts\mvdfrm\UnityEditor.CoreModule.dll_14CC57ED6DF42E26.mvfrm
Library\Bee\artifacts\mvdfrm\UnityEditor.DeviceSimulatorModule.dll_F90BC291B6B3427B.mvfrm
Library\Bee\artifacts\mvdfrm\UnityEditor.DiagnosticsModule.dll_A54D081BB041DE09.mvfrm
Library\Bee\artifacts\mvdfrm\UnityEditor.dll_9EEFD057EEB4E28F.mvfrm
Library\Bee\artifacts\mvdfrm\UnityEditor.GraphViewModule.dll_D7F23073726A1AC0.mvfrm
Library\Bee\artifacts\mvdfrm\UnityEditor.PackageManagerUIModule.dll_2FD7468B37F28802.mvfrm
Library\Bee\artifacts\mvdfrm\UnityEditor.QuickSearchModule.dll_305C89290918DA62.mvfrm
Library\Bee\artifacts\mvdfrm\UnityEditor.SceneTemplateModule.dll_90B65EEEBD8A1923.mvfrm
Library\Bee\artifacts\mvdfrm\UnityEditor.TextCoreFontEngineModule.dll_E548684BF5341CE4.mvfrm
Library\Bee\artifacts\mvdfrm\UnityEditor.TextCoreTextEngineModule.dll_2D309EBD84B7D602.mvfrm
Library\Bee\artifacts\mvdfrm\UnityEditor.UIBuilderModule.dll_2C7ADD8FE52293F4.mvfrm
Library\Bee\artifacts\mvdfrm\UnityEditor.UIElementsModule.dll_522A11C778CFE7A2.mvfrm
Library\Bee\artifacts\mvdfrm\UnityEditor.UIElementsSamplesModule.dll_5C3F6E6BF25949EB.mvfrm
Library\Bee\artifacts\mvdfrm\UnityEditor.UIServiceModule.dll_656CEEF2CE59E40E.mvfrm
Library\Bee\artifacts\mvdfrm\UnityEditor.UnityConnectModule.dll_2E409C6C2D99EFDC.mvfrm
Library\Bee\artifacts\mvdfrm\UnityEngine.AccessibilityModule.dll_C35BCA85BE0040C0.mvfrm
Library\Bee\artifacts\mvdfrm\UnityEngine.AIModule.dll_A753A3E037E0B3BA.mvfrm
Library\Bee\artifacts\mvdfrm\UnityEngine.AndroidJNIModule.dll_D072FA9AC1EF5678.mvfrm
Library\Bee\artifacts\mvdfrm\UnityEngine.AnimationModule.dll_A677AC9C4CC6EF66.mvfrm
Library\Bee\artifacts\mvdfrm\UnityEngine.ARModule.dll_60C668E394FE1283.mvfrm
Library\Bee\artifacts\mvdfrm\UnityEngine.AssetBundleModule.dll_7445BC1A6B7F8F54.mvfrm
Library\Bee\artifacts\mvdfrm\UnityEngine.AudioModule.dll_59C6F55AE77506D8.mvfrm
Library\Bee\artifacts\mvdfrm\UnityEngine.ClothModule.dll_C0AF5255C191E5BC.mvfrm
Library\Bee\artifacts\mvdfrm\UnityEngine.ClusterInputModule.dll_ADDD1181DF21C2A2.mvfrm
Library\Bee\artifacts\mvdfrm\UnityEngine.ClusterRendererModule.dll_FEB88503266E4FFF.mvfrm
Library\Bee\artifacts\mvdfrm\UnityEngine.CoreModule.dll_37ED2B4015F99951.mvfrm
Library\Bee\artifacts\mvdfrm\UnityEngine.CrashReportingModule.dll_5C865C06BF66A989.mvfrm
Library\Bee\artifacts\mvdfrm\UnityEngine.DirectorModule.dll_F0F28E24383533AE.mvfrm
Library\Bee\artifacts\mvdfrm\UnityEngine.dll_D19417304D286F74.mvfrm
Library\Bee\artifacts\mvdfrm\UnityEngine.DSPGraphModule.dll_F643EF8DAA9604CF.mvfrm
Library\Bee\artifacts\mvdfrm\UnityEngine.GameCenterModule.dll_FAC044B588304769.mvfrm
Library\Bee\artifacts\mvdfrm\UnityEngine.GIModule.dll_3F8FECEDD38F9BD4.mvfrm
Library\Bee\artifacts\mvdfrm\UnityEngine.GridModule.dll_155E472E2E4E2F48.mvfrm
Library\Bee\artifacts\mvdfrm\UnityEngine.HotReloadModule.dll_27C06AA227FA0AE8.mvfrm
Library\Bee\artifacts\mvdfrm\UnityEngine.ImageConversionModule.dll_6AAA82B3A89307F3.mvfrm
Library\Bee\artifacts\mvdfrm\UnityEngine.IMGUIModule.dll_922694C1ADA69AB9.mvfrm
Library\Bee\artifacts\mvdfrm\UnityEngine.InputLegacyModule.dll_058AD73903714545.mvfrm
Library\Bee\artifacts\mvdfrm\UnityEngine.InputModule.dll_C03CBD0B5DAD2B7C.mvfrm
Library\Bee\artifacts\mvdfrm\UnityEngine.JSONSerializeModule.dll_237353C1BD3BA14A.mvfrm
Library\Bee\artifacts\mvdfrm\UnityEngine.LocalizationModule.dll_EC29DBD4769DB59B.mvfrm
Library\Bee\artifacts\mvdfrm\UnityEngine.ParticleSystemModule.dll_AF98A5532D783517.mvfrm
Library\Bee\artifacts\mvdfrm\UnityEngine.PerformanceReportingModule.dll_ABE06EBAEEECBF10.mvfrm
Library\Bee\artifacts\mvdfrm\UnityEngine.Physics2DModule.dll_F31D9C8CEDC3E6FB.mvfrm
Library\Bee\artifacts\mvdfrm\UnityEngine.PhysicsModule.dll_8A6E15FDBCF87CA9.mvfrm
Library\Bee\artifacts\mvdfrm\UnityEngine.ProfilerModule.dll_2338C75AD18EBABB.mvfrm
Library\Bee\artifacts\mvdfrm\UnityEngine.RuntimeInitializeOnLoadManagerInitializerModule.dll_31292F5BE4D3CDC4.mvfrm
Library\Bee\artifacts\mvdfrm\UnityEngine.ScreenCaptureModule.dll_3D5B0146D1A7CDAC.mvfrm
Library\Bee\artifacts\mvdfrm\UnityEngine.SharedInternalsModule.dll_EEBBC1891FC10343.mvfrm
Library\Bee\artifacts\mvdfrm\UnityEngine.SpriteMaskModule.dll_E3ECB745A99FDCE3.mvfrm
Library\Bee\artifacts\mvdfrm\UnityEngine.SpriteShapeModule.dll_8DA6E9752121C75E.mvfrm
Library\Bee\artifacts\mvdfrm\UnityEngine.StreamingModule.dll_5B0C99EC9C4EA6A4.mvfrm
Library\Bee\artifacts\mvdfrm\UnityEngine.SubstanceModule.dll_37B7AE35E7A1A4B2.mvfrm
Library\Bee\artifacts\mvdfrm\UnityEngine.SubsystemsModule.dll_4E9A1DA777E7C4F6.mvfrm
Library\Bee\artifacts\mvdfrm\UnityEngine.TerrainModule.dll_A4B4916C92B6C597.mvfrm
Library\Bee\artifacts\mvdfrm\UnityEngine.TerrainPhysicsModule.dll_B0134E2646BB2FA4.mvfrm
Library\Bee\artifacts\mvdfrm\UnityEngine.TextCoreFontEngineModule.dll_63A7E39F0831DBAF.mvfrm
Library\Bee\artifacts\mvdfrm\UnityEngine.TextCoreTextEngineModule.dll_AB901A1097B594CD.mvfrm
Library\Bee\artifacts\mvdfrm\UnityEngine.TextRenderingModule.dll_669A735188DF4DA1.mvfrm
Library\Bee\artifacts\mvdfrm\UnityEngine.TilemapModule.dll_43B0F8EDAA73A6A0.mvfrm
Library\Bee\artifacts\mvdfrm\UnityEngine.TLSModule.dll_B585B6F3F7A9FB3D.mvfrm
Library\Bee\artifacts\mvdfrm\UnityEngine.UIElementsModule.dll_52D87F0F7B1400ED.mvfrm
Library\Bee\artifacts\mvdfrm\UnityEngine.UIElementsNativeModule.dll_7A50FB20A96AF824.mvfrm
Library\Bee\artifacts\mvdfrm\UnityEngine.UIModule.dll_A2C7420D9427B966.mvfrm
Library\Bee\artifacts\mvdfrm\UnityEngine.UmbraModule.dll_D49BA173749BB24B.mvfrm
Library\Bee\artifacts\mvdfrm\UnityEngine.UNETModule.dll_CA93732963088ECA.mvfrm
Library\Bee\artifacts\mvdfrm\UnityEngine.UnityAnalyticsModule.dll_CF38161CD99F8713.mvfrm
Library\Bee\artifacts\mvdfrm\UnityEngine.UnityConnectModule.dll_1BA0207B2821F087.mvfrm
Library\Bee\artifacts\mvdfrm\UnityEngine.UnityCurlModule.dll_D9944DCDBCDAE153.mvfrm
Library\Bee\artifacts\mvdfrm\UnityEngine.UnityTestProtocolModule.dll_1802245E4C549F41.mvfrm
Library\Bee\artifacts\mvdfrm\UnityEngine.UnityWebRequestAssetBundleModule.dll_911A5CF9006A4024.mvfrm
Library\Bee\artifacts\mvdfrm\UnityEngine.UnityWebRequestAudioModule.dll_23DCC299755789A8.mvfrm
Library\Bee\artifacts\mvdfrm\UnityEngine.UnityWebRequestModule.dll_7C498A5DB387A272.mvfrm
Library\Bee\artifacts\mvdfrm\UnityEngine.UnityWebRequestTextureModule.dll_5379182B07ED647D.mvfrm
Library\Bee\artifacts\mvdfrm\UnityEngine.UnityWebRequestWWWModule.dll_76525F6C87755139.mvfrm
Library\Bee\artifacts\mvdfrm\UnityEngine.VehiclesModule.dll_68B587A3B25F0349.mvfrm
Library\Bee\artifacts\mvdfrm\UnityEngine.VFXModule.dll_36644F62CE1764AA.mvfrm
Library\Bee\artifacts\mvdfrm\UnityEngine.VideoModule.dll_7ED079C5AA07227D.mvfrm
Library\Bee\artifacts\mvdfrm\UnityEngine.VirtualTexturingModule.dll_9EDDAF8F821978AF.mvfrm
Library\Bee\artifacts\mvdfrm\UnityEngine.VRModule.dll_F599689335E23EDE.mvfrm
Library\Bee\artifacts\mvdfrm\UnityEngine.WindModule.dll_AE3C0668A73017BA.mvfrm
Library\Bee\artifacts\mvdfrm\UnityEngine.XRModule.dll_28582B97BF1C8C3C.mvfrm
Library\Bee\artifacts\mvdfrm\Unity.Burst.Cecil.dll_BEBD58CFE3310539.mvfrm
Library\Bee\artifacts\mvdfrm\Unity.Burst.Cecil.Mdb.dll_B870BD3274414EB6.mvfrm
Library\Bee\artifacts\mvdfrm\Unity.Burst.Cecil.Pdb.dll_CFC335A1F2F65039.mvfrm
Library\Bee\artifacts\mvdfrm\Unity.Burst.Cecil.Rocks.dll_163057F0DD130179.mvfrm
Library\Bee\artifacts\mvdfrm\Unity.Burst.Unsafe.dll_5FE65DBF11AD1C8A.mvfrm
Library\Bee\artifacts\mvdfrm\Unity.VisualScripting.Antlr3.Runtime.dll_7FB7E934B3B79123.mvfrm